FINAL_DELIVERABLE/sim/tb_edgeconv.vcd
$date
	Sun Feb  8 17:20:19 2026
$end
$version
	Icarus Verilog
$end
$timescale
	1ps
$end
$scope module tb_edgeconv $end
$var wire 1 ! valid_out $end
$var wire 4 " digit_out [3:0] $end
$var reg 1 # clk $end
$var reg 8 $ pixel_in [7:0] $end
$var reg 1 % rst_n $end
$var reg 1 & valid_in $end
$var integer 32 ' i [31:0] $end
$scope module dut $end
$var wire 1 # clk $end
$var wire 8 ( pixel_in [7:0] $end
$var wire 1 % rst_n $end
$var wire 1 & valid_in $end
$var wire 1 ! valid_out $end
$var wire 4 ) digit_out [3:0] $end
$scope module core $end
$var wire 1 # clk $end
$var wire 8 * pixel_in [7:0] $end
$var wire 1 % rst_n $end
$var wire 1 & valid_in $end
$var wire 1 ! valid_out $end
$var wire 4 + digit_out [3:0] $end
$var reg 4 , class_cnt [3:0] $end
$var reg 16 - fc_acc [15:0] $end
$var reg 4 . feat_x [3:0] $end
$var reg 4 / feat_y [3:0] $end
$var reg 2 0 line_ptr [1:0] $end
$var reg 10 1 pixel_cnt [9:0] $end
$var reg 8 2 result_reg [7:0] $end
$var reg 3 3 state [2:0] $end
$var reg 1 4 valid_reg $end
$var integer 32 5 i [31:0] $end
$var integer 32 6 j [31:0] $end
$upscope $end
$upscope $end
$upscope $end
$enddefinitions $end
#0
$dumpvars
b11000100 6
b1010 5
x4
bx 3
bx 2
bx 1
bx 0
bx /
bx .
bx -
bx ,
bx +
b0 *
bx )
b0 (
bx '
0&
0%
b0 $
0#
bx "
x!
$end
#12500
b0 -
b0 ,
b0 /
b0 .
0!
04
b0 0
b0 1
b0 3
1#
#25000
0#
#37500
1#
#50000
0#
#62500
1#
#75000
0#
#87500
1#
#100000
0#
b0 '
1%
#112500
b1 1
b1 0
b1 '
1&
1#
#125000
0#
#137500
b10 1
b10 0
b10 '
b1 $
b1 (
b1 *
1#
#150000
0#
#162500
b11 1
b11 0
b11 '
b10 $
b10 (
b10 *
1#
#175000
0#
#187500
b100 1
b0 0
b100 '
b11 $
b11 (
b11 *
1#
#200000
0#
#212500
b101 1
b1 0
b101 '
b100 $
b100 (
b100 *
1#
#225000
0#
#237500
b110 1
b10 0
b110 '
b101 $
b101 (
b101 *
1#
#250000
0#
#262500
b111 1
b11 0
b111 '
b110 $
b110 (
b110 *
1#
#275000
0#
#287500
b1000 1
b0 0
b1000 '
b111 $
b111 (
b111 *
1#
#300000
0#
#312500
b1001 1
b1 0
b1001 '
b1000 $
b1000 (
b1000 *
1#
#325000
0#
#337500
b1010 1
b10 0
b1010 '
b1001 $
b1001 (
b1001 *
1#
#350000
0#
#362500
b1011 1
b11 0
b1011 '
b1010 $
b1010 (
b1010 *
1#
#375000
0#
#387500
b1100 1
b0 0
b1100 '
b1011 $
b1011 (
b1011 *
1#
#400000
0#
#412500
b1101 1
b1 0
b1101 '
b1100 $
b1100 (
b1100 *
1#
#425000
0#
#437500
b1110 1
b10 0
b1110 '
b1101 $
b1101 (
b1101 *
1#
#450000
0#
#462500
b1111 1
b11 0
b1111 '
b1110 $
b1110 (
b1110 *
1#
#475000
0#
#487500
b10000 1
b0 0
b10000 '
b1111 $
b1111 (
b1111 *
1#
#500000
0#
#512500
b10001 1
b1 0
b10001 '
b10000 $
b10000 (
b10000 *
1#
#525000
0#
#537500
b10010 1
b10 0
b10010 '
b10001 $
b10001 (
b10001 *
1#
#550000
0#
#562500
b10011 1
b11 0
b10011 '
b10010 $
b10010 (
b10010 *
1#
#575000
0#
#587500
b10100 1
b0 0
b10100 '
b10011 $
b10011 (
b10011 *
1#
#600000
0#
#612500
b10101 1
b1 0
b10101 '
b10100 $
b10100 (
b10100 *
1#
#625000
0#
#637500
b10110 1
b10 0
b10110 '
b10101 $
b10101 (
b10101 *
1#
#650000
0#
#662500
b10111 1
b11 0
b10111 '
b10110 $
b10110 (
b10110 *
1#
#675000
0#
#687500
b11000 1
b0 0
b11000 '
b10111 $
b10111 (
b10111 *
1#
#700000
0#
#712500
b11001 1
b1 0
b11001 '
b11000 $
b11000 (
b11000 *
1#
#725000
0#
#737500
b11010 1
b10 0
b11010 '
b11001 $
b11001 (
b11001 *
1#
#750000
0#
#762500
b11011 1
b11 0
b11011 '
b11010 $
b11010 (
b11010 *
1#
#775000
0#
#787500
b11100 1
b0 0
b11100 '
b11011 $
b11011 (
b11011 *
1#
#800000
0#
#812500
b11101 1
b1 0
b11101 '
b11100 $
b11100 (
b11100 *
1#
#825000
0#
#837500
b11110 1
b10 0
b11110 '
b11101 $
b11101 (
b11101 *
1#
#850000
0#
#862500
b11111 1
b11 0
b11111 '
b11110 $
b11110 (
b11110 *
1#
#875000
0#
#887500
b100000 1
b0 0
b100000 '
b11111 $
b11111 (
b11111 *
1#
#900000
0#
#912500
b100001 1
b1 0
b100001 '
b100000 $
b100000 (
b100000 *
1#
#925000
0#
#937500
b100010 1
b10 0
b100010 '
b100001 $
b100001 (
b100001 *
1#
#950000
0#
#962500
b100011 1
b11 0
b100011 '
b100010 $
b100010 (
b100010 *
1#
#975000
0#
#987500
b100100 1
b0 0
b100100 '
b100011 $
b100011 (
b100011 *
1#
#1000000
0#
#1012500
b100101 1
b1 0
b100101 '
b100100 $
b100100 (
b100100 *
1#
#1025000
0#
#1037500
b100110 1
b10 0
b100110 '
b100101 $
b100101 (
b100101 *
1#
#1050000
0#
#1062500
b100111 1
b11 0
b100111 '
b100110 $
b100110 (
b100110 *
1#
#1075000
0#
#1087500
b101000 1
b0 0
b101000 '
b100111 $
b100111 (
b100111 *
1#
#1100000
0#
#1112500
b101001 1
b1 0
b101001 '
b101000 $
b101000 (
b101000 *
1#
#1125000
0#
#1137500
b101010 1
b10 0
b101010 '
b101001 $
b101001 (
b101001 *
1#
#1150000
0#
#1162500
b101011 1
b11 0
b101011 '
b101010 $
b101010 (
b101010 *
1#
#1175000
0#
#1187500
b101100 1
b0 0
b101100 '
b101011 $
b101011 (
b101011 *
1#
#1200000
0#
#1212500
b101101 1
b1 0
b101101 '
b101100 $
b101100 (
b101100 *
1#
#1225000
0#
#1237500
b101110 1
b10 0
b101110 '
b101101 $
b101101 (
b101101 *
1#
#1250000
0#
#1262500
b101111 1
b11 0
b101111 '
b101110 $
b101110 (
b101110 *
1#
#1275000
0#
#1287500
b110000 1
b0 0
b110000 '
b101111 $
b101111 (
b101111 *
1#
#1300000
0#
#1312500
b110001 1
b1 0
b110001 '
b110000 $
b110000 (
b110000 *
1#
#1325000
0#
#1337500
b110010 1
b10 0
b110010 '
b110001 $
b110001 (
b110001 *
1#
#1350000
0#
#1362500
b110011 1
b11 0
b110011 '
b110010 $
b110010 (
b110010 *
1#
#1375000
0#
#1387500
b110100 1
b0 0
b110100 '
b110011 $
b110011 (
b110011 *
1#
#1400000
0#
#1412500
b110101 1
b1 0
b110101 '
b110100 $
b110100 (
b110100 *
1#
#1425000
0#
#1437500
b110110 1
b10 0
b110110 '
b110101 $
b110101 (
b110101 *
1#
#1450000
0#
#1462500
b110111 1
b11 0
b110111 '
b110110 $
b110110 (
b110110 *
1#
#1475000
0#
#1487500
b111000 1
b0 0
b111000 '
b110111 $
b110111 (
b110111 *
1#
#1500000
0#
#1512500
b111001 1
b1 0
b111001 '
b111000 $
b111000 (
b111000 *
1#
#1525000
0#
#1537500
b111010 1
b10 0
b111010 '
b111001 $
b111001 (
b111001 *
1#
#1550000
0#
#1562500
b111011 1
b11 0
b111011 '
b111010 $
b111010 (
b111010 *
1#
#1575000
0#
#1587500
b111100 1
b0 0
b111100 '
b111011 $
b111011 (
b111011 *
1#
#1600000
0#
#1612500
b111101 1
b1 0
b111101 '
b111100 $
b111100 (
b111100 *
1#
#1625000
0#
#1637500
b111110 1
b10 0
b111110 '
b111101 $
b111101 (
b111101 *
1#
#1650000
0#
#1662500
b111111 1
b11 0
b111111 '
b111110 $
b111110 (
b111110 *
1#
#1675000
0#
#1687500
b1000000 1
b0 0
b1000000 '
b111111 $
b111111 (
b111111 *
1#
#1700000
0#
#1712500
b1000001 1
b1 0
b1000001 '
b1000000 $
b1000000 (
b1000000 *
1#
#1725000
0#
#1737500
b1000010 1
b10 0
b1000010 '
b1000001 $
b1000001 (
b1000001 *
1#
#1750000
0#
#1762500
b1000011 1
b11 0
b1000011 '
b1000010 $
b1000010 (
b1000010 *
1#
#1775000
0#
#1787500
b1000100 1
b0 0
b1000100 '
b1000011 $
b1000011 (
b1000011 *
1#
#1800000
0#
#1812500
b1000101 1
b1 0
b1000101 '
b1000100 $
b1000100 (
b1000100 *
1#
#1825000
0#
#1837500
b1000110 1
b10 0
b1000110 '
b1000101 $
b1000101 (
b1000101 *
1#
#1850000
0#
#1862500
b1000111 1
b11 0
b1000111 '
b1000110 $
b1000110 (
b1000110 *
1#
#1875000
0#
#1887500
b1001000 1
b0 0
b1001000 '
b1000111 $
b1000111 (
b1000111 *
1#
#1900000
0#
#1912500
b1001001 1
b1 0
b1001001 '
b1001000 $
b1001000 (
b1001000 *
1#
#1925000
0#
#1937500
b1001010 1
b10 0
b1001010 '
b1001001 $
b1001001 (
b1001001 *
1#
#1950000
0#
#1962500
b1001011 1
b11 0
b1001011 '
b1001010 $
b1001010 (
b1001010 *
1#
#1975000
0#
#1987500
b1001100 1
b0 0
b1001100 '
b1001011 $
b1001011 (
b1001011 *
1#
#2000000
0#
#2012500
b1001101 1
b1 0
b1001101 '
b1001100 $
b1001100 (
b1001100 *
1#
#2025000
0#
#2037500
b1001110 1
b10 0
b1001110 '
b1001101 $
b1001101 (
b1001101 *
1#
#2050000
0#
#2062500
b1001111 1
b11 0
b1001111 '
b1001110 $
b1001110 (
b1001110 *
1#
#2075000
0#
#2087500
b1010000 1
b0 0
b1010000 '
b1001111 $
b1001111 (
b1001111 *
1#
#2100000
0#
#2112500
b1010001 1
b1 0
b1010001 '
b1010000 $
b1010000 (
b1010000 *
1#
#2125000
0#
#2137500
b1010010 1
b10 0
b1010010 '
b1010001 $
b1010001 (
b1010001 *
1#
#2150000
0#
#2162500
b1010011 1
b11 0
b1010011 '
b1010010 $
b1010010 (
b1010010 *
1#
#2175000
0#
#2187500
b1010100 1
b0 0
b1010100 '
b1010011 $
b1010011 (
b1010011 *
1#
#2200000
0#
#2212500
b1010101 1
b1 0
b1010101 '
b1010100 $
b1010100 (
b1010100 *
1#
#2225000
0#
#2237500
b1010110 1
b10 0
b1010110 '
b1010101 $
b1010101 (
b1010101 *
1#
#2250000
0#
#2262500
b1010111 1
b11 0
b1010111 '
b1010110 $
b1010110 (
b1010110 *
1#
#2275000
0#
#2287500
b1011000 1
b0 0
b1011000 '
b1010111 $
b1010111 (
b1010111 *
1#
#2300000
0#
#2312500
b1011001 1
b1 0
b1011001 '
b1011000 $
b1011000 (
b1011000 *
1#
#2325000
0#
#2337500
b1011010 1
b10 0
b1011010 '
b1011001 $
b1011001 (
b1011001 *
1#
#2350000
0#
#2362500
b1011011 1
b11 0
b1011011 '
b1011010 $
b1011010 (
b1011010 *
1#
#2375000
0#
#2387500
b1011100 1
b0 0
b1011100 '
b1011011 $
b1011011 (
b1011011 *
1#
#2400000
0#
#2412500
b1011101 1
b1 0
b1011101 '
b1011100 $
b1011100 (
b1011100 *
1#
#2425000
0#
#2437500
b1011110 1
b10 0
b1011110 '
b1011101 $
b1011101 (
b1011101 *
1#
#2450000
0#
#2462500
b1011111 1
b11 0
b1011111 '
b1011110 $
b1011110 (
b1011110 *
1#
#2475000
0#
#2487500
b1100000 1
b0 0
b1100000 '
b1011111 $
b1011111 (
b1011111 *
1#
#2500000
0#
#2512500
b1100001 1
b1 0
b1100001 '
b1100000 $
b1100000 (
b1100000 *
1#
#2525000
0#
#2537500
b1100010 1
b10 0
b1100010 '
b1100001 $
b1100001 (
b1100001 *
1#
#2550000
0#
#2562500
b1100011 1
b11 0
b1100011 '
b1100010 $
b1100010 (
b1100010 *
1#
#2575000
0#
#2587500
b1100100 1
b0 0
b1100100 '
b1100011 $
b1100011 (
b1100011 *
1#
#2600000
0#
#2612500
b1100101 1
b1 0
b1100101 '
b1100100 $
b1100100 (
b1100100 *
1#
#2625000
0#
#2637500
b1100110 1
b10 0
b1100110 '
b1100101 $
b1100101 (
b1100101 *
1#
#2650000
0#
#2662500
b1100111 1
b11 0
b1100111 '
b1100110 $
b1100110 (
b1100110 *
1#
#2675000
0#
#2687500
b1101000 1
b0 0
b1101000 '
b1100111 $
b1100111 (
b1100111 *
1#
#2700000
0#
#2712500
b1101001 1
b1 0
b1101001 '
b1101000 $
b1101000 (
b1101000 *
1#
#2725000
0#
#2737500
b1101010 1
b10 0
b1101010 '
b1101001 $
b1101001 (
b1101001 *
1#
#2750000
0#
#2762500
b1101011 1
b11 0
b1101011 '
b1101010 $
b1101010 (
b1101010 *
1#
#2775000
0#
#2787500
b1101100 1
b0 0
b1101100 '
b1101011 $
b1101011 (
b1101011 *
1#
#2800000
0#
#2812500
b1101101 1
b1 0
b1101101 '
b1101100 $
b1101100 (
b1101100 *
1#
#2825000
0#
#2837500
b1101110 1
b10 0
b1101110 '
b1101101 $
b1101101 (
b1101101 *
1#
#2850000
0#
#2862500
b1101111 1
b11 0
b1101111 '
b1101110 $
b1101110 (
b1101110 *
1#
#2875000
0#
#2887500
b1110000 1
b0 0
b1110000 '
b1101111 $
b1101111 (
b1101111 *
1#
#2900000
0#
#2912500
b1110001 1
b1 0
b1110001 '
b1110000 $
b1110000 (
b1110000 *
1#
#2925000
0#
#2937500
b1110010 1
b10 0
b1110010 '
b1110001 $
b1110001 (
b1110001 *
1#
#2950000
0#
#2962500
b1110011 1
b11 0
b1110011 '
b1110010 $
b1110010 (
b1110010 *
1#
#2975000
0#
#2987500
b1110100 1
b0 0
b1110100 '
b1110011 $
b1110011 (
b1110011 *
1#
#3000000
0#
#3012500
b1110101 1
b1 0
b1110101 '
b1110100 $
b1110100 (
b1110100 *
1#
#3025000
0#
#3037500
b1110110 1
b10 0
b1110110 '
b1110101 $
b1110101 (
b1110101 *
1#
#3050000
0#
#3062500
b1110111 1
b11 0
b1110111 '
b1110110 $
b1110110 (
b1110110 *
1#
#3075000
0#
#3087500
b1111000 1
b0 0
b1111000 '
b1110111 $
b1110111 (
b1110111 *
1#
#3100000
0#
#3112500
b1111001 1
b1 0
b1111001 '
b1111000 $
b1111000 (
b1111000 *
1#
#3125000
0#
#3137500
b1111010 1
b10 0
b1111010 '
b1111001 $
b1111001 (
b1111001 *
1#
#3150000
0#
#3162500
b1111011 1
b11 0
b1111011 '
b1111010 $
b1111010 (
b1111010 *
1#
#3175000
0#
#3187500
b1111100 1
b0 0
b1111100 '
b1111011 $
b1111011 (
b1111011 *
1#
#3200000
0#
#3212500
b1111101 1
b1 0
b1111101 '
b1111100 $
b1111100 (
b1111100 *
1#
#3225000
0#
#3237500
b1111110 1
b10 0
b1111110 '
b1111101 $
b1111101 (
b1111101 *
1#
#3250000
0#
#3262500
b1111111 1
b11 0
b1111111 '
b1111110 $
b1111110 (
b1111110 *
1#
#3275000
0#
#3287500
b10000000 1
b0 0
b10000000 '
b1111111 $
b1111111 (
b1111111 *
1#
#3300000
0#
#3312500
b10000001 1
b1 0
b10000001 '
b10000000 $
b10000000 (
b10000000 *
1#
#3325000
0#
#3337500
b10000010 1
b10 0
b10000010 '
b10000001 $
b10000001 (
b10000001 *
1#
#3350000
0#
#3362500
b10000011 1
b11 0
b10000011 '
b10000010 $
b10000010 (
b10000010 *
1#
#3375000
0#
#3387500
b10000100 1
b0 0
b10000100 '
b10000011 $
b10000011 (
b10000011 *
1#
#3400000
0#
#3412500
b10000101 1
b1 0
b10000101 '
b10000100 $
b10000100 (
b10000100 *
1#
#3425000
0#
#3437500
b10000110 1
b10 0
b10000110 '
b10000101 $
b10000101 (
b10000101 *
1#
#3450000
0#
#3462500
b10000111 1
b11 0
b10000111 '
b10000110 $
b10000110 (
b10000110 *
1#
#3475000
0#
#3487500
b10001000 1
b0 0
b10001000 '
b10000111 $
b10000111 (
b10000111 *
1#
#3500000
0#
#3512500
b10001001 1
b1 0
b10001001 '
b10001000 $
b10001000 (
b10001000 *
1#
#3525000
0#
#3537500
b10001010 1
b10 0
b10001010 '
b10001001 $
b10001001 (
b10001001 *
1#
#3550000
0#
#3562500
b10001011 1
b11 0
b10001011 '
b10001010 $
b10001010 (
b10001010 *
1#
#3575000
0#
#3587500
b10001100 1
b0 0
b10001100 '
b10001011 $
b10001011 (
b10001011 *
1#
#3600000
0#
#3612500
b10001101 1
b1 0
b10001101 '
b10001100 $
b10001100 (
b10001100 *
1#
#3625000
0#
#3637500
b10001110 1
b10 0
b10001110 '
b10001101 $
b10001101 (
b10001101 *
1#
#3650000
0#
#3662500
b10001111 1
b11 0
b10001111 '
b10001110 $
b10001110 (
b10001110 *
1#
#3675000
0#
#3687500
b10010000 1
b0 0
b10010000 '
b10001111 $
b10001111 (
b10001111 *
1#
#3700000
0#
#3712500
b10010001 1
b1 0
b10010001 '
b10010000 $
b10010000 (
b10010000 *
1#
#3725000
0#
#3737500
b10010010 1
b10 0
b10010010 '
b10010001 $
b10010001 (
b10010001 *
1#
#3750000
0#
#3762500
b10010011 1
b11 0
b10010011 '
b10010010 $
b10010010 (
b10010010 *
1#
#3775000
0#
#3787500
b10010100 1
b0 0
b10010100 '
b10010011 $
b10010011 (
b10010011 *
1#
#3800000
0#
#3812500
b10010101 1
b1 0
b10010101 '
b10010100 $
b10010100 (
b10010100 *
1#
#3825000
0#
#3837500
b10010110 1
b10 0
b10010110 '
b10010101 $
b10010101 (
b10010101 *
1#
#3850000
0#
#3862500
b10010111 1
b11 0
b10010111 '
b10010110 $
b10010110 (
b10010110 *
1#
#3875000
0#
#3887500
b10011000 1
b0 0
b10011000 '
b10010111 $
b10010111 (
b10010111 *
1#
#3900000
0#
#3912500
b10011001 1
b1 0
b10011001 '
b10011000 $
b10011000 (
b10011000 *
1#
#3925000
0#
#3937500
b10011010 1
b10 0
b10011010 '
b10011001 $
b10011001 (
b10011001 *
1#
#3950000
0#
#3962500
b10011011 1
b11 0
b10011011 '
b10011010 $
b10011010 (
b10011010 *
1#
#3975000
0#
#3987500
b10011100 1
b0 0
b10011100 '
b10011011 $
b10011011 (
b10011011 *
1#
#4000000
0#
#4012500
b10011101 1
b1 0
b10011101 '
b10011100 $
b10011100 (
b10011100 *
1#
#4025000
0#
#4037500
b10011110 1
b10 0
b10011110 '
b10011101 $
b10011101 (
b10011101 *
1#
#4050000
0#
#4062500
b10011111 1
b11 0
b10011111 '
b10011110 $
b10011110 (
b10011110 *
1#
#4075000
0#
#4087500
b10100000 1
b0 0
b10100000 '
b10011111 $
b10011111 (
b10011111 *
1#
#4100000
0#
#4112500
b10100001 1
b1 0
b10100001 '
b10100000 $
b10100000 (
b10100000 *
1#
#4125000
0#
#4137500
b10100010 1
b10 0
b10100010 '
b10100001 $
b10100001 (
b10100001 *
1#
#4150000
0#
#4162500
b10100011 1
b11 0
b10100011 '
b10100010 $
b10100010 (
b10100010 *
1#
#4175000
0#
#4187500
b10100100 1
b0 0
b10100100 '
b10100011 $
b10100011 (
b10100011 *
1#
#4200000
0#
#4212500
b10100101 1
b1 0
b10100101 '
b10100100 $
b10100100 (
b10100100 *
1#
#4225000
0#
#4237500
b10100110 1
b10 0
b10100110 '
b10100101 $
b10100101 (
b10100101 *
1#
#4250000
0#
#4262500
b10100111 1
b11 0
b10100111 '
b10100110 $
b10100110 (
b10100110 *
1#
#4275000
0#
#4287500
b10101000 1
b0 0
b10101000 '
b10100111 $
b10100111 (
b10100111 *
1#
#4300000
0#
#4312500
b10101001 1
b1 0
b10101001 '
b10101000 $
b10101000 (
b10101000 *
1#
#4325000
0#
#4337500
b10101010 1
b10 0
b10101010 '
b10101001 $
b10101001 (
b10101001 *
1#
#4350000
0#
#4362500
b10101011 1
b11 0
b10101011 '
b10101010 $
b10101010 (
b10101010 *
1#
#4375000
0#
#4387500
b10101100 1
b0 0
b10101100 '
b10101011 $
b10101011 (
b10101011 *
1#
#4400000
0#
#4412500
b10101101 1
b1 0
b10101101 '
b10101100 $
b10101100 (
b10101100 *
1#
#4425000
0#
#4437500
b10101110 1
b10 0
b10101110 '
b10101101 $
b10101101 (
b10101101 *
1#
#4450000
0#
#4462500
b10101111 1
b11 0
b10101111 '
b10101110 $
b10101110 (
b10101110 *
1#
#4475000
0#
#4487500
b10110000 1
b0 0
b10110000 '
b10101111 $
b10101111 (
b10101111 *
1#
#4500000
0#
#4512500
b10110001 1
b1 0
b10110001 '
b10110000 $
b10110000 (
b10110000 *
1#
#4525000
0#
#4537500
b10110010 1
b10 0
b10110010 '
b10110001 $
b10110001 (
b10110001 *
1#
#4550000
0#
#4562500
b10110011 1
b11 0
b10110011 '
b10110010 $
b10110010 (
b10110010 *
1#
#4575000
0#
#4587500
b10110100 1
b0 0
b10110100 '
b10110011 $
b10110011 (
b10110011 *
1#
#4600000
0#
#4612500
b10110101 1
b1 0
b10110101 '
b10110100 $
b10110100 (
b10110100 *
1#
#4625000
0#
#4637500
b10110110 1
b10 0
b10110110 '
b10110101 $
b10110101 (
b10110101 *
1#
#4650000
0#
#4662500
b10110111 1
b11 0
b10110111 '
b10110110 $
b10110110 (
b10110110 *
1#
#4675000
0#
#4687500
b10111000 1
b0 0
b10111000 '
b10110111 $
b10110111 (
b10110111 *
1#
#4700000
0#
#4712500
b10111001 1
b1 0
b10111001 '
b10111000 $
b10111000 (
b10111000 *
1#
#4725000
0#
#4737500
b10111010 1
b10 0
b10111010 '
b10111001 $
b10111001 (
b10111001 *
1#
#4750000
0#
#4762500
b10111011 1
b11 0
b10111011 '
b10111010 $
b10111010 (
b10111010 *
1#
#4775000
0#
#4787500
b10111100 1
b0 0
b10111100 '
b10111011 $
b10111011 (
b10111011 *
1#
#4800000
0#
#4812500
b10111101 1
b1 0
b10111101 '
b10111100 $
b10111100 (
b10111100 *
1#
#4825000
0#
#4837500
b10111110 1
b10 0
b10111110 '
b10111101 $
b10111101 (
b10111101 *
1#
#4850000
0#
#4862500
b10111111 1
b11 0
b10111111 '
b10111110 $
b10111110 (
b10111110 *
1#
#4875000
0#
#4887500
b11000000 1
b0 0
b11000000 '
b10111111 $
b10111111 (
b10111111 *
1#
#4900000
0#
#4912500
b11000001 1
b1 0
b11000001 '
b11000000 $
b11000000 (
b11000000 *
1#
#4925000
0#
#4937500
b11000010 1
b10 0
b11000010 '
b11000001 $
b11000001 (
b11000001 *
1#
#4950000
0#
#4962500
b11000011 1
b11 0
b11000011 '
b11000010 $
b11000010 (
b11000010 *
1#
#4975000
0#
#4987500
b11000100 1
b0 0
b11000100 '
b11000011 $
b11000011 (
b11000011 *
1#
#5000000
0#
#5012500
b11000101 1
b1 0
b11000101 '
b11000100 $
b11000100 (
b11000100 *
1#
#5025000
0#
#5037500
b11000110 1
b10 0
b11000110 '
b11000101 $
b11000101 (
b11000101 *
1#
#5050000
0#
#5062500
b11000111 1
b11 0
b11000111 '
b11000110 $
b11000110 (
b11000110 *
1#
#5075000
0#
#5087500
b11001000 1
b0 0
b11001000 '
b11000111 $
b11000111 (
b11000111 *
1#
#5100000
0#
#5112500
b11001001 1
b1 0
b11001001 '
b11001000 $
b11001000 (
b11001000 *
1#
#5125000
0#
#5137500
b11001010 1
b10 0
b11001010 '
b11001001 $
b11001001 (
b11001001 *
1#
#5150000
0#
#5162500
b11001011 1
b11 0
b11001011 '
b11001010 $
b11001010 (
b11001010 *
1#
#5175000
0#
#5187500
b11001100 1
b0 0
b11001100 '
b11001011 $
b11001011 (
b11001011 *
1#
#5200000
0#
#5212500
b11001101 1
b1 0
b11001101 '
b11001100 $
b11001100 (
b11001100 *
1#
#5225000
0#
#5237500
b11001110 1
b10 0
b11001110 '
b11001101 $
b11001101 (
b11001101 *
1#
#5250000
0#
#5262500
b11001111 1
b11 0
b11001111 '
b11001110 $
b11001110 (
b11001110 *
1#
#5275000
0#
#5287500
b11010000 1
b0 0
b11010000 '
b11001111 $
b11001111 (
b11001111 *
1#
#5300000
0#
#5312500
b11010001 1
b1 0
b11010001 '
b11010000 $
b11010000 (
b11010000 *
1#
#5325000
0#
#5337500
b11010010 1
b10 0
b11010010 '
b11010001 $
b11010001 (
b11010001 *
1#
#5350000
0#
#5362500
b11010011 1
b11 0
b11010011 '
b11010010 $
b11010010 (
b11010010 *
1#
#5375000
0#
#5387500
b11010100 1
b0 0
b11010100 '
b11010011 $
b11010011 (
b11010011 *
1#
#5400000
0#
#5412500
b11010101 1
b1 0
b11010101 '
b11010100 $
b11010100 (
b11010100 *
1#
#5425000
0#
#5437500
b11010110 1
b10 0
b11010110 '
b11010101 $
b11010101 (
b11010101 *
1#
#5450000
0#
#5462500
b11010111 1
b11 0
b11010111 '
b11010110 $
b11010110 (
b11010110 *
1#
#5475000
0#
#5487500
b11011000 1
b0 0
b11011000 '
b11010111 $
b11010111 (
b11010111 *
1#
#5500000
0#
#5512500
b11011001 1
b1 0
b11011001 '
b11011000 $
b11011000 (
b11011000 *
1#
#5525000
0#
#5537500
b11011010 1
b10 0
b11011010 '
b11011001 $
b11011001 (
b11011001 *
1#
#5550000
0#
#5562500
b11011011 1
b11 0
b11011011 '
b11011010 $
b11011010 (
b11011010 *
1#
#5575000
0#
#5587500
b11011100 1
b0 0
b11011100 '
b11011011 $
b11011011 (
b11011011 *
1#
#5600000
0#
#5612500
b11011101 1
b1 0
b11011101 '
b11011100 $
b11011100 (
b11011100 *
1#
#5625000
0#
#5637500
b11011110 1
b10 0
b11011110 '
b11011101 $
b11011101 (
b11011101 *
1#
#5650000
0#
#5662500
b11011111 1
b11 0
b11011111 '
b11011110 $
b11011110 (
b11011110 *
1#
#5675000
0#
#5687500
b11100000 1
b0 0
b11100000 '
b11011111 $
b11011111 (
b11011111 *
1#
#5700000
0#
#5712500
b11100001 1
b1 0
b11100001 '
b11100000 $
b11100000 (
b11100000 *
1#
#5725000
0#
#5737500
b11100010 1
b10 0
b11100010 '
b11100001 $
b11100001 (
b11100001 *
1#
#5750000
0#
#5762500
b11100011 1
b11 0
b11100011 '
b11100010 $
b11100010 (
b11100010 *
1#
#5775000
0#
#5787500
b11100100 1
b0 0
b11100100 '
b11100011 $
b11100011 (
b11100011 *
1#
#5800000
0#
#5812500
b11100101 1
b1 0
b11100101 '
b11100100 $
b11100100 (
b11100100 *
1#
#5825000
0#
#5837500
b11100110 1
b10 0
b11100110 '
b11100101 $
b11100101 (
b11100101 *
1#
#5850000
0#
#5862500
b11100111 1
b11 0
b11100111 '
b11100110 $
b11100110 (
b11100110 *
1#
#5875000
0#
#5887500
b11101000 1
b0 0
b11101000 '
b11100111 $
b11100111 (
b11100111 *
1#
#5900000
0#
#5912500
b11101001 1
b1 0
b11101001 '
b11101000 $
b11101000 (
b11101000 *
1#
#5925000
0#
#5937500
b11101010 1
b10 0
b11101010 '
b11101001 $
b11101001 (
b11101001 *
1#
#5950000
0#
#5962500
b11101011 1
b11 0
b11101011 '
b11101010 $
b11101010 (
b11101010 *
1#
#5975000
0#
#5987500
b11101100 1
b0 0
b11101100 '
b11101011 $
b11101011 (
b11101011 *
1#
#6000000
0#
#6012500
b11101101 1
b1 0
b11101101 '
b11101100 $
b11101100 (
b11101100 *
1#
#6025000
0#
#6037500
b11101110 1
b10 0
b11101110 '
b11101101 $
b11101101 (
b11101101 *
1#
#6050000
0#
#6062500
b11101111 1
b11 0
b11101111 '
b11101110 $
b11101110 (
b11101110 *
1#
#6075000
0#
#6087500
b11110000 1
b0 0
b11110000 '
b11101111 $
b11101111 (
b11101111 *
1#
#6100000
0#
#6112500
b11110001 1
b1 0
b11110001 '
b11110000 $
b11110000 (
b11110000 *
1#
#6125000
0#
#6137500
b11110010 1
b10 0
b11110010 '
b11110001 $
b11110001 (
b11110001 *
1#
#6150000
0#
#6162500
b11110011 1
b11 0
b11110011 '
b11110010 $
b11110010 (
b11110010 *
1#
#6175000
0#
#6187500
b11110100 1
b0 0
b11110100 '
b11110011 $
b11110011 (
b11110011 *
1#
#6200000
0#
#6212500
b11110101 1
b1 0
b11110101 '
b11110100 $
b11110100 (
b11110100 *
1#
#6225000
0#
#6237500
b11110110 1
b10 0
b11110110 '
b11110101 $
b11110101 (
b11110101 *
1#
#6250000
0#
#6262500
b11110111 1
b11 0
b11110111 '
b11110110 $
b11110110 (
b11110110 *
1#
#6275000
0#
#6287500
b11111000 1
b0 0
b11111000 '
b11110111 $
b11110111 (
b11110111 *
1#
#6300000
0#
#6312500
b11111001 1
b1 0
b11111001 '
b11111000 $
b11111000 (
b11111000 *
1#
#6325000
0#
#6337500
b11111010 1
b10 0
b11111010 '
b11111001 $
b11111001 (
b11111001 *
1#
#6350000
0#
#6362500
b11111011 1
b11 0
b11111011 '
b11111010 $
b11111010 (
b11111010 *
1#
#6375000
0#
#6387500
b11111100 1
b0 0
b11111100 '
b11111011 $
b11111011 (
b11111011 *
1#
#6400000
0#
#6412500
b11111101 1
b1 0
b11111101 '
b11111100 $
b11111100 (
b11111100 *
1#
#6425000
0#
#6437500
b11111110 1
b10 0
b11111110 '
b11111101 $
b11111101 (
b11111101 *
1#
#6450000
0#
#6462500
b11111111 1
b11 0
b11111111 '
b11111110 $
b11111110 (
b11111110 *
1#
#6475000
0#
#6487500
b100000000 1
b0 0
b100000000 '
b11111111 $
b11111111 (
b11111111 *
1#
#6500000
0#
#6512500
b100000001 1
b1 0
b100000001 '
b0 $
b0 (
b0 *
1#
#6525000
0#
#6537500
b100000010 1
b10 0
b100000010 '
b1 $
b1 (
b1 *
1#
#6550000
0#
#6562500
b100000011 1
b11 0
b100000011 '
b10 $
b10 (
b10 *
1#
#6575000
0#
#6587500
b100000100 1
b0 0
b100000100 '
b11 $
b11 (
b11 *
1#
#6600000
0#
